<?xml version="1.0" encoding="UTF-8" standalone="no"?>
<!-- Generator: Adobe Illustrator 19.0.0, SVG Export Plug-In . SVG Version: 6.00 Build 0)  -->

<svg
   xmlns:dc="http://purl.org/dc/elements/1.1/"
   xmlns:cc="http://creativecommons.org/ns#"
   xmlns:rdf="http://www.w3.org/1999/02/22-rdf-syntax-ns#"
   xmlns:svg="http://www.w3.org/2000/svg"
   xmlns="http://www.w3.org/2000/svg"
   xmlns:sodipodi="http://sodipodi.sourceforge.net/DTD/sodipodi-0.dtd"
   xmlns:inkscape="http://www.inkscape.org/namespaces/inkscape"
   version="1.1"
   id="Capa_1"
   x="0px"
   y="0px"
   viewBox="0 0 14.727001 16"
   xml:space="preserve"
   sodipodi:docname="download_hover.svg"
   width="14.727"
   height="16"
   inkscape:version="0.92.2 2405546, 2018-03-11"><metadata
   id="metadata43"><rdf:RDF><cc:Work
       rdf:about=""><dc:format>image/svg+xml</dc:format><dc:type
         rdf:resource="http://purl.org/dc/dcmitype/StillImage" /><dc:title></dc:title></cc:Work></rdf:RDF></metadata><defs
   id="defs41" /><sodipodi:namedview
   pagecolor="#ffffff"
   bordercolor="#666666"
   borderopacity="1"
   objecttolerance="10"
   gridtolerance="10"
   guidetolerance="10"
   inkscape:pageopacity="0"
   inkscape:pageshadow="2"
   inkscape:window-width="1243"
   inkscape:window-height="797"
   id="namedview39"
   showgrid="false"
   fit-margin-top="1"
   fit-margin-left="1"
   fit-margin-right="1"
   fit-margin-bottom="1"
   inkscape:zoom="22.627417"
   inkscape:cx="-5.5574559"
   inkscape:cy="4.5293832"
   inkscape:window-x="0"
   inkscape:window-y="0"
   inkscape:window-maximized="0"
   inkscape:current-layer="g868" />
<g
   id="g6"
   transform="matrix(0.23728814,0,0,0.23728814,-0.77966105,1)"
   style="fill:#559a0b;fill-opacity:1">
	
	
<g
   id="g868"><path
     style="fill:#559a0b;fill-opacity:1"
     inkscape:connector-curvature="0"
     id="path4"
     d="m 41.317607,16 c -0.553,0 -1,0.447 -1,1 0,0.553 0.447,1 1,1 h 13 v 39 h -40 V 18 h 13 c 0.553,0 1,-0.447 1,-1 0,-0.553 -0.447,-1 -1,-1 h -15 v 43 h 44 V 16 Z" /><path
     style="fill:#559a0b;fill-opacity:1"
     inkscape:connector-curvature="0"
     id="path2"
     d="m 25.025107,28.313 c -0.391,-0.391 -1.023,-0.391 -1.414,0 -0.391,0.391 -0.391,1.023 0,1.414 l 9.979,9.979 c 0.186,0.189 0.44,0.294 0.706,0.294 0.007,0 0.014,-0.004 0.021,-0.004 0.007,0 0.013,0.004 0.021,0.004 0.333,0 0.613,-0.173 0.795,-0.423 l 9.891,-9.891 c 0.391,-0.391 0.391,-1.023 0,-1.414 -0.391,-0.391 -1.023,-0.391 -1.414,0 l -8.272,8.272 V 1 c 0,-0.553 -0.447,-1 -1,-1 -0.553,0 -1,0.447 -1,1 v 35.628 z" /></g></g>
<g
   id="g8"
   transform="translate(-6.5000001,-44)">
</g>
<g
   id="g10"
   transform="translate(-6.5000001,-44)">
</g>
<g
   id="g12"
   transform="translate(-6.5000001,-44)">
</g>
<g
   id="g14"
   transform="translate(-6.5000001,-44)">
</g>
<g
   id="g16"
   transform="translate(-6.5000001,-44)">
</g>
<g
   id="g18"
   transform="translate(-6.5000001,-44)">
</g>
<g
   id="g20"
   transform="translate(-6.5000001,-44)">
</g>
<g
   id="g22"
   transform="translate(-6.5000001,-44)">
</g>
<g
   id="g24"
   transform="translate(-6.5000001,-44)">
</g>
<g
   id="g26"
   transform="translate(-6.5000001,-44)">
</g>
<g
   id="g28"
   transform="translate(-6.5000001,-44)">
</g>
<g
   id="g30"
   transform="translate(-6.5000001,-44)">
</g>
<g
   id="g32"
   transform="translate(-6.5000001,-44)">
</g>
<g
   id="g34"
   transform="translate(-6.5000001,-44)">
</g>
<g
   id="g36"
   transform="translate(-6.5000001,-44)">
</g>
</svg>