<?xml version="1.0" encoding="UTF-8" standalone="no"?>
<!-- Generator: Adobe Illustrator 19.0.0, SVG Export Plug-In . SVG Version: 6.00 Build 0)  -->

<svg
   xmlns:dc="http://purl.org/dc/elements/1.1/"
   xmlns:cc="http://creativecommons.org/ns#"
   xmlns:rdf="http://www.w3.org/1999/02/22-rdf-syntax-ns#"
   xmlns:svg="http://www.w3.org/2000/svg"
   xmlns="http://www.w3.org/2000/svg"
   xmlns:sodipodi="http://sodipodi.sourceforge.net/DTD/sodipodi-0.dtd"
   xmlns:inkscape="http://www.inkscape.org/namespaces/inkscape"
   version="1.1"
   id="Capa_1"
   x="0px"
   y="0px"
   viewBox="0 0 20 20"
   xml:space="preserve"
   sodipodi:docname="info_hover.svg"
   width="20"
   height="20"
   inkscape:version="0.92.2 2405546, 2018-03-11"><metadata
   id="metadata45"><rdf:RDF><cc:Work
       rdf:about=""><dc:format>image/svg+xml</dc:format><dc:type
         rdf:resource="http://purl.org/dc/dcmitype/StillImage" /><dc:title></dc:title></cc:Work></rdf:RDF></metadata><defs
   id="defs43">
	
	
	
</defs><sodipodi:namedview
   pagecolor="#ffffff"
   bordercolor="#666666"
   borderopacity="1"
   objecttolerance="10"
   gridtolerance="10"
   guidetolerance="10"
   inkscape:pageopacity="0"
   inkscape:pageshadow="2"
   inkscape:window-width="1920"
   inkscape:window-height="1026"
   id="namedview41"
   showgrid="false"
   fit-margin-top="1"
   fit-margin-left="1"
   fit-margin-right="1"
   fit-margin-bottom="1"
   inkscape:zoom="18.153846"
   inkscape:cx="3.5326375"
   inkscape:cy="17.86572"
   inkscape:window-x="0"
   inkscape:window-y="0"
   inkscape:window-maximized="1"
   inkscape:current-layer="Capa_1" />
<circle
   style="fill:#9ff246;fill-opacity:1;stroke:none;stroke-width:2;stroke-miterlimit:4;stroke-dasharray:none;stroke-opacity:1"
   id="path852"
   cx="10"
   cy="10"
   r="7.8771186" /><path
   inkscape:connector-curvature="0"
   id="path2"
   d="m 10,1 c -4.9628076,0 -9,4.0371924 -9,9 0,4.962808 4.0371924,9 9,9 4.962808,0 9,-4.037192 9,-9 0,-4.9628076 -4.037192,-9 -9,-9 z m 0,17.307692 C 5.4193462,18.307692 1.6923077,14.580654 1.6923077,10 1.6923077,5.4193462 5.4193462,1.6923077 10,1.6923077 c 4.580654,0 8.307692,3.7270385 8.307692,8.3076923 0,4.580654 -3.727038,8.307692 -8.307692,8.307692 z"
   style="stroke-width:0.34615386;fill:#559a0b;fill-opacity:1" /><path
   inkscape:connector-curvature="0"
   id="path4"
   d="m 10,13.807692 c -0.191423,0 -0.3461538,0.154731 -0.3461538,0.346154 v 0.692308 c 0,0.191423 0.1547308,0.346154 0.3461538,0.346154 0.191423,0 0.346154,-0.154731 0.346154,-0.346154 v -0.692308 c 0,-0.191423 -0.154731,-0.346154 -0.346154,-0.346154 z"
   style="stroke-width:0.34615386;fill:#000000;fill-opacity:1" /><path
   inkscape:connector-curvature="0"
   id="path6"
   d="m 10.039115,4.1157308 c -0.01315,0 -0.02631,-3.462e-4 -0.039807,-3.462e-4 -0.7324616,0 -1.4213077,0.2821154 -1.9436539,0.7975385 -0.5316923,0.5244231 -0.8248846,1.2246923 -0.8248846,1.9716923 0,0.1914231 0.1547308,0.3461539 0.3461538,0.3461539 0.1914231,0 0.3461539,-0.1547308 0.3461539,-0.3461539 0,-0.5600769 0.2198077,-1.0855384 0.6185769,-1.4787692 0.3991154,-0.3935769 0.9304616,-0.6109615 1.4881149,-0.5978077 1.094193,0.015231 2.031577,0.9526154 2.046808,2.0468077 0.01004,0.7213846 -0.345808,1.3853077 -0.952269,1.7764616 -0.920769,0.594 -1.4704616,1.6435382 -1.4704616,2.8080002 v 0.983769 c 0,0.191423 0.1547308,0.346154 0.3461536,0.346154 0.191423,0 0.346154,-0.154731 0.346154,-0.346154 v -0.983769 c 0,-0.914539 0.441692,-1.7671156 1.153385,-2.2264618 0.808269,-0.5213077 1.282846,-1.406423 1.269346,-2.3676923 C 12.748116,5.3611924 11.523423,4.1365 10.039115,4.1157308 Z"
   style="stroke-width:0.34615386;fill:#000000;fill-opacity:1" />
<g
   id="g10"
   transform="matrix(0.34615385,0,0,0.34615385,1,1)"
   style="fill:#559a0b;fill-opacity:1">
</g>
<g
   id="g12"
   transform="matrix(0.34615385,0,0,0.34615385,1,1)"
   style="fill:#559a0b;fill-opacity:1">
</g>
<g
   id="g14"
   transform="matrix(0.34615385,0,0,0.34615385,1,1)"
   style="fill:#559a0b;fill-opacity:1">
</g>
<g
   id="g16"
   transform="matrix(0.34615385,0,0,0.34615385,1,1)"
   style="fill:#559a0b;fill-opacity:1">
</g>
<g
   id="g18"
   transform="matrix(0.34615385,0,0,0.34615385,1,1)"
   style="fill:#559a0b;fill-opacity:1">
</g>
<g
   id="g20"
   transform="matrix(0.34615385,0,0,0.34615385,1,1)"
   style="fill:#559a0b;fill-opacity:1">
</g>
<g
   id="g22"
   transform="matrix(0.34615385,0,0,0.34615385,1,1)"
   style="fill:#559a0b;fill-opacity:1">
</g>
<g
   id="g24"
   transform="matrix(0.34615385,0,0,0.34615385,1,1)"
   style="fill:#559a0b;fill-opacity:1">
</g>
<g
   id="g26"
   transform="matrix(0.34615385,0,0,0.34615385,1,1)"
   style="fill:#559a0b;fill-opacity:1">
</g>
<g
   id="g28"
   transform="matrix(0.34615385,0,0,0.34615385,1,1)"
   style="fill:#559a0b;fill-opacity:1">
</g>
<g
   id="g30"
   transform="matrix(0.34615385,0,0,0.34615385,1,1)"
   style="fill:#559a0b;fill-opacity:1">
</g>
<g
   id="g32"
   transform="matrix(0.34615385,0,0,0.34615385,1,1)"
   style="fill:#559a0b;fill-opacity:1">
</g>
<g
   id="g34"
   transform="matrix(0.34615385,0,0,0.34615385,1,1)"
   style="fill:#559a0b;fill-opacity:1">
</g>
<g
   id="g36"
   transform="matrix(0.34615385,0,0,0.34615385,1,1)"
   style="fill:#559a0b;fill-opacity:1">
</g>
<g
   id="g38"
   transform="matrix(0.34615385,0,0,0.34615385,1,1)"
   style="fill:#559a0b;fill-opacity:1">
</g>
</svg>