<?xml version="1.0" encoding="UTF-8" standalone="no"?>
<!-- Generator: Adobe Illustrator 19.0.0, SVG Export Plug-In . SVG Version: 6.00 Build 0)  -->

<svg
   xmlns:dc="http://purl.org/dc/elements/1.1/"
   xmlns:cc="http://creativecommons.org/ns#"
   xmlns:rdf="http://www.w3.org/1999/02/22-rdf-syntax-ns#"
   xmlns:svg="http://www.w3.org/2000/svg"
   xmlns="http://www.w3.org/2000/svg"
   xmlns:sodipodi="http://sodipodi.sourceforge.net/DTD/sodipodi-0.dtd"
   xmlns:inkscape="http://www.inkscape.org/namespaces/inkscape"
   version="1.1"
   id="Capa_1"
   x="0px"
   y="0px"
   viewBox="0 0 20 20"
   xml:space="preserve"
   inkscape:version="0.92.2 2405546, 2018-03-11"
   sodipodi:docname="placeholder.svg"
   width="20"
   height="20"><metadata
     id="metadata43"><rdf:RDF><cc:Work
         rdf:about=""><dc:format>image/svg+xml</dc:format><dc:type
           rdf:resource="http://purl.org/dc/dcmitype/StillImage" /><dc:title></dc:title></cc:Work></rdf:RDF></metadata><defs
     id="defs41" /><sodipodi:namedview
     pagecolor="#ffffff"
     bordercolor="#666666"
     borderopacity="1"
     objecttolerance="10"
     gridtolerance="10"
     guidetolerance="10"
     inkscape:pageopacity="0"
     inkscape:pageshadow="2"
     inkscape:window-width="1850"
     inkscape:window-height="986"
     id="namedview39"
     showgrid="false"
     inkscape:zoom="17.239805"
     inkscape:cx="18.927116"
     inkscape:cy="14.252613"
     inkscape:window-x="0"
     inkscape:window-y="0"
     inkscape:window-maximized="0"
     inkscape:current-layer="Capa_1" /><path
     inkscape:connector-curvature="0"
     style="color:#000000;clip-rule:nonzero;display:inline;overflow:visible;visibility:visible;opacity:1;isolation:auto;mix-blend-mode:normal;color-interpolation:sRGB;color-interpolation-filters:linearRGB;solid-color:#000000;solid-opacity:1;fill:#ffffff;fill-opacity:1;fill-rule:nonzero;stroke-width:0.32872021;stroke-linecap:butt;stroke-linejoin:miter;stroke-miterlimit:4;stroke-dasharray:none;stroke-dashoffset:0;stroke-opacity:1;color-rendering:auto;image-rendering:auto;shape-rendering:auto;text-rendering:auto;enable-background:accumulate"
     d="M 10.000934,1 C 8.3169006,1 6.7339329,1.6558585 5.5433083,2.8464831 3.3398968,5.0495662 3.0658469,9.1944557 4.9500712,11.705878 L 10.000934,19 15.043451,11.716151 C 16.935236,9.1945378 16.66133,5.0495662 14.457918,2.8464831 13.267294,1.6558585 11.684639,1 10.000934,1 Z m 0.05778,3.9446426 c 1.268532,0 2.301042,1.0325103 2.301042,2.3010416 0,1.2685313 -1.03251,2.3010415 -2.301042,2.3010415 -1.2685309,0 -2.3010411,-1.0325102 -2.3010411,-2.3010415 0,-1.2685313 1.0325102,-2.3010416 2.3010411,-2.3010416 z"
     id="path7-5" /><path
     inkscape:connector-curvature="0"
     id="path5"
     d="m 10.058835,4.9446426 c -1.2685309,0 -2.3010411,1.0325103 -2.3010411,2.3010416 0,1.2685313 1.0325102,2.3010415 2.3010411,2.3010415 1.268532,0 2.301042,-1.0325102 2.301042,-2.3010415 0,-1.2685313 -1.03251,-2.3010416 -2.301042,-2.3010416 z m 0,3.9446427 c -0.9062812,0 -1.6436007,-0.7373195 -1.6436007,-1.6436011 0,-0.9062817 0.7373195,-1.6436011 1.6436007,-1.6436011 0.906282,0 1.643602,0.7373194 1.643602,1.6436011 0,0.9062816 -0.73732,1.6436011 -1.643602,1.6436011 z"
     style="stroke-width:0.32872021" /><path
     inkscape:connector-curvature="0"
     style="color:#000000;clip-rule:nonzero;display:inline;overflow:visible;visibility:visible;opacity:1;isolation:auto;mix-blend-mode:normal;color-interpolation:sRGB;color-interpolation-filters:linearRGB;solid-color:#000000;solid-opacity:1;fill:#000000;fill-opacity:1;fill-rule:nonzero;stroke-width:0.32872021;stroke-linecap:butt;stroke-linejoin:miter;stroke-miterlimit:4;stroke-dasharray:none;stroke-dashoffset:0;stroke-opacity:1;color-rendering:auto;image-rendering:auto;shape-rendering:auto;text-rendering:auto;enable-background:accumulate"
     id="path7"
     d="M 14.458098,2.8464215 C 13.267473,1.6557968 11.684357,1 10.000652,1 8.3166182,1 6.7338304,1.6557968 5.5432057,2.8464215 3.3397941,5.0495044 3.0659702,9.1946664 4.9501945,11.706089 l 5.0504575,7.293644 5.042897,-7.283454 C 16.935334,9.1946664 16.66151,5.0495044 14.458098,2.8464215 Z m 0.05227,8.4855835 -4.509713,6.512605 -4.5169446,-6.522795 C 3.774691,9.0431263 4.0195875,5.2996605 6.0083449,3.3112319 7.0747132,2.2448635 8.4924836,1.6574404 10.000652,1.6574404 c 1.508168,0 2.925939,0.5874231 3.992636,1.6537915 1.988757,1.9884286 2.233654,5.7318944 0.517077,8.0207731 z" /><g
     id="g9"
     transform="translate(0,-34.757)" /><g
     id="g11"
     transform="translate(0,-34.757)" /><g
     id="g13"
     transform="translate(0,-34.757)" /><g
     id="g15"
     transform="translate(0,-34.757)" /><g
     id="g17"
     transform="translate(0,-34.757)" /><g
     id="g19"
     transform="translate(0,-34.757)" /><g
     id="g21"
     transform="translate(0,-34.757)" /><g
     id="g23"
     transform="translate(0,-34.757)" /><g
     id="g25"
     transform="translate(0,-34.757)" /><g
     id="g27"
     transform="translate(0,-34.757)" /><g
     id="g29"
     transform="translate(0,-34.757)" /><g
     id="g31"
     transform="translate(0,-34.757)" /><g
     id="g33"
     transform="translate(0,-34.757)" /><g
     id="g35"
     transform="translate(0,-34.757)" /><g
     id="g37"
     transform="translate(0,-34.757)" /></svg>