<?xml version="1.0" encoding="UTF-8" standalone="no"?>
<!-- Generator: Adobe Illustrator 19.0.0, SVG Export Plug-In . SVG Version: 6.00 Build 0)  -->

<svg
   xmlns:dc="http://purl.org/dc/elements/1.1/"
   xmlns:cc="http://creativecommons.org/ns#"
   xmlns:rdf="http://www.w3.org/1999/02/22-rdf-syntax-ns#"
   xmlns:svg="http://www.w3.org/2000/svg"
   xmlns="http://www.w3.org/2000/svg"
   xmlns:sodipodi="http://sodipodi.sourceforge.net/DTD/sodipodi-0.dtd"
   xmlns:inkscape="http://www.inkscape.org/namespaces/inkscape"
   version="1.1"
   id="Capa_1"
   x="0px"
   y="0px"
   viewBox="0 0 28 28"
   xml:space="preserve"
   sodipodi:docname="warning.svg"
   width="28"
   height="28"
   inkscape:version="0.92.2 2405546, 2018-03-11"><metadata
   id="metadata45"><rdf:RDF><cc:Work
       rdf:about=""><dc:format>image/svg+xml</dc:format><dc:type
         rdf:resource="http://purl.org/dc/dcmitype/StillImage" /><dc:title /></cc:Work></rdf:RDF></metadata><defs
   id="defs43">
	
	
	
</defs><sodipodi:namedview
   pagecolor="#ffffff"
   bordercolor="#666666"
   borderopacity="1"
   objecttolerance="10"
   gridtolerance="10"
   guidetolerance="10"
   inkscape:pageopacity="0"
   inkscape:pageshadow="2"
   inkscape:window-width="1920"
   inkscape:window-height="1026"
   id="namedview41"
   showgrid="false"
   fit-margin-top="1"
   fit-margin-left="1"
   fit-margin-right="1"
   fit-margin-bottom="1"
   inkscape:zoom="18.153846"
   inkscape:cx="0.027609784"
   inkscape:cy="11.018134"
   inkscape:window-x="0"
   inkscape:window-y="0"
   inkscape:window-maximized="1"
   inkscape:current-layer="g843" />
<circle
   style="fill:#f4a660;fill-opacity:1;stroke:none;stroke-width:1.60009861;stroke-miterlimit:4;stroke-dasharray:none;stroke-opacity:1"
   id="path830"
   cx="14"
   cy="14"
   r="11" /><path
   inkscape:connector-curvature="0"
   id="path2"
   d="M 14,1 C 6.832,1 1,6.8315 1,14 1,21.1685 6.832,27 14,27 21.168,27 27,21.1685 27,14 27,6.8315 21.168,1 14,1 Z m 0,25 C 7.3835,26 2,20.6165 2,14 2,7.3835 7.3835,2 14,2 c 6.6165,0 12,5.3835 12,12 0,6.6165 -5.3835,12 -12,12 z"
   style="stroke-width:0.5;fill:#a8550c;fill-opacity:1" /><g
   id="g843"
   transform="translate(0,-0.233705)"><g
     id="g847"><path
       sodipodi:nodetypes="sssssss"
       inkscape:connector-curvature="0"
       id="path4"
       d="m 14,6.25 c -0.552,0 -1,0.2235 -1,0.5 v 10.415738 c 0,0.2765 0.448,0.5 1,0.5 0.552,0 1,-0.2235 1,-0.5 V 6.75 c 0,-0.2765 -0.448,-0.5 -1,-0.5 z"
       style="stroke-width:0.70710677" /><path
       inkscape:connector-curvature="0"
       id="path6"
       d="m 14,19.75 c -0.552,0 -1,0.275733 -1,0.616852 v 1.233705 c 0,0.34112 0.448,0.616853 1,0.616853 0.552,0 1,-0.275733 1,-0.616853 V 20.366852 C 15,20.025733 14.552,19.75 14,19.75 Z"
       style="stroke-width:0.7853995" /></g></g>
<g
   id="g10"
   transform="translate(1,-25)">
</g>
<g
   id="g12"
   transform="translate(1,-25)">
</g>
<g
   id="g14"
   transform="translate(1,-25)">
</g>
<g
   id="g16"
   transform="translate(1,-25)">
</g>
<g
   id="g18"
   transform="translate(1,-25)">
</g>
<g
   id="g20"
   transform="translate(1,-25)">
</g>
<g
   id="g22"
   transform="translate(1,-25)">
</g>
<g
   id="g24"
   transform="translate(1,-25)">
</g>
<g
   id="g26"
   transform="translate(1,-25)">
</g>
<g
   id="g28"
   transform="translate(1,-25)">
</g>
<g
   id="g30"
   transform="translate(1,-25)">
</g>
<g
   id="g32"
   transform="translate(1,-25)">
</g>
<g
   id="g34"
   transform="translate(1,-25)">
</g>
<g
   id="g36"
   transform="translate(1,-25)">
</g>
<g
   id="g38"
   transform="translate(1,-25)">
</g>
</svg>